[  
   {  
      "product":{  
         "id":"1",
         "category_id":[  
            "200",
            "201",
            "202"
         ],
         "price":"1000"
      }
   },
   {  
      "product":{  
         "id":"2",
         "category_id":[  
            "200"
         ],
         "price":"2000"
      }
   },
   {  
      "product":{  
         "id":"3",
         "category_id":[  
            "201",
            "202"
         ],
         "price":"5000.33"
      }
   },
   {  
      "product":{  
         "id":"4",
         "category_id":[  
            "203"
         ],
         "price":"2500.50"
      }
   }
]